<?xml version="1.0" encoding="utf-8"?>
<!-- Generator: Adobe Illustrator 18.1.1, SVG Export Plug-In . SVG Version: 6.00 Build 0)  -->
<svg version="1.1" id="Layer_1" xmlns="http://www.w3.org/2000/svg" xmlns:xlink="http://www.w3.org/1999/xlink" x="0px" y="0px"
	 viewBox="0 0 216 216" enable-background="new 0 0 216 216" xml:space="preserve">
<g>
	<path fill="#FFFFFF" d="M98.2,82.8c-8.3,0-14,5.7-14,15.1v17.8c0,0.5,0.3,0.8,0.8,0.8h26.4c0.5,0,0.8-0.3,0.8-0.8V97.9
		C112.1,88.5,106.6,82.8,98.2,82.8z M108.3,3.3C50.8,3.3,4.2,49.9,4.2,107.3c0,57.5,46.6,104.1,104.1,104.1
		c57.5,0,104.1-46.6,104.1-104.1C212.3,49.9,165.7,3.3,108.3,3.3z M160.6,130.9c0,0.8-0.5,1.3-1.3,1.3H71.4c-0.8,0-1.3-0.5-1.3-1.3
		v-34c0-17.6,11.3-29.8,28.1-29.8c16.9,0,28.2,12.3,28.2,29.8v18.8c0,0.5,0.3,0.8,0.8,0.8h32.1c0.8,0,1.3,0.5,1.3,1.3V130.9z"/>
</g>
</svg>
