<?xml version="1.0" encoding="utf-8"?>
<!-- Generator: Adobe Illustrator 18.1.1, SVG Export Plug-In . SVG Version: 6.00 Build 0)  -->
<svg version="1.1" id="Layer_1" xmlns="http://www.w3.org/2000/svg" xmlns:xlink="http://www.w3.org/1999/xlink" x="0px" y="0px"
	 viewBox="0 0 335.5 25.8" style="enable-background:new 0 0 335.5 25.8;" xml:space="preserve">
<polygon points="335.5,12.9 313.2,0 313.2,9.9 0.9,9.9 0.9,15.9 313.2,15.9 313.2,25.8 "/>
</svg>
